…
This post is about using ggiraph to make an interactive scaterplot

df <- Batting%>%
      group_by(playerID)%>%
      summarize(Career_HR = sum(HR),Career_SO = sum(SO))%>%
      filter(Career_HR >= 400)
df
## # A tibble: 55 x 3
##     playerID Career_HR Career_SO
##        <chr>     <int>     <int>
##  1 aaronha01       755      1383
##  2 bagweje01       449      1558
##  3 bankser01       512      1236
##  4 beltrad01       445      1584
##  5 beltrca01       421      1693
##  6 bondsba01       762      1539
##  7 cabremi01       446      1516
##  8 cansejo01       462      1942
##  9 dawsoan01       438      1509
## 10 delgaca01       473      1745
## # ... with 45 more rows

Next we will use a join to join the master table and the df dataframe

HR_vs_SO <- inner_join(df,Master,by=c("playerID"))%>%
            select(nameFirst,nameLast,Career_HR,Career_SO)

HR_vs_SO$name <-paste(HR_vs_SO$nameFirst,HR_vs_SO$nameLast)
HR_vs_SO
## # A tibble: 55 x 5
##    nameFirst nameLast Career_HR Career_SO           name
##        <chr>    <chr>     <int>     <int>          <chr>
##  1      Hank    Aaron       755      1383     Hank Aaron
##  2      Jeff  Bagwell       449      1558   Jeff Bagwell
##  3     Ernie    Banks       512      1236    Ernie Banks
##  4    Adrian   Beltre       445      1584  Adrian Beltre
##  5    Carlos  Beltran       421      1693 Carlos Beltran
##  6     Barry    Bonds       762      1539    Barry Bonds
##  7    Miguel  Cabrera       446      1516 Miguel Cabrera
##  8      Jose  Canseco       462      1942   Jose Canseco
##  9     Andre   Dawson       438      1509   Andre Dawson
## 10    Carlos  Delgado       473      1745 Carlos Delgado
## # ... with 45 more rows
…
